{
   "contacts":[
      {
         "id":4165874,
         "first_name":"Lis\u00e2ngela",
         "last_name":"Sobrenome",
         "email":"cienciascontabeis@teste.edu.br",
         "business":"Seune",
         "position":"Coordenadora de Ci\u00eancias Cont\u00e1beis",
         "telephone":"8232152900",
         "cellphone":null,
         "address":"Av. Teste",
         "url":null,
         "linkedin":"https://www.linkedin.com/in/lis%C3%A2ngela-sobrenome-893b63/",
         "stage":"prospect",
         "custom_fields":[

         ],
         "tags":[
            {
               "id":10930,
               "name":"Ci\u00eancias Cont\u00e1beis ",
               "color":"D83E78",
               "taggable_tag_id":2069154
            },
            {
               "id":11839,
               "name":"Outbound",
               "color":"2D7DAA",
               "taggable_tag_id":2068990
            },
            {
               "id":13927,
               "name":"Coordenadores",
               "color":"F68F16",
               "taggable_tag_id":2068989
            },
            {
               "id":11890,
               "name":"TESTE III",
               "color":"5A0C91",
               "taggable_tag_id":2068988
            }
         ],
         "user":{
            "id":6830,
            "name":"User Tow",
            "picture_url":"https://reev.s3.amazonaws.com/users/pictures/000/006/830/thumb/Foto_de_perfil.jpeg?1603138363",
            "role":"manager"
         },
         "flow":{
            "id":52857,
            "name":"[Outbound] Teste ",
            "semi_automatic":true
         },
         "contact_group":null,
         "recipient_status":"connected",
         "lost_reason_title":null,
         "created_at":"2021-02-08T17:17:55.404Z",
         "updated_at":"2021-02-08T18:12:19.330Z",
         "variable1":"Biblioteca Digital",
         "variable2":"variable2",
         "variable3":null
      },
      {
         "id":4165329,
         "first_name":"Nome",
         "last_name":"Sobrenome",
         "email":"coordedfisica@teste.edu.br",
         "business":"Faculdade Uni\u00e3o",
         "position":"Coordenadora de Educa\u00e7\u00e3o F\u00edsica",
         "telephone":"(55)95069300",
         "cellphone":null,
         "address":"Rodovia Teste",
         "url":null,
         "linkedin":null,
         "stage":"prospect",
         "custom_fields":[

         ],
         "tags":[
            {
               "id":13927,
               "name":"Coordenadores",
               "color":"F68F16",
               "taggable_tag_id":2068792
            },
            {
               "id":11839,
               "name":"Outbound",
               "color":"2D7DAA",
               "taggable_tag_id":2068791
            },
            {
               "id":5833,
               "name":" Teste II",
               "color":"5A0C91",
               "taggable_tag_id":2068790
            }
         ],
         "user":{
            "id":6830,
            "name":"User Two",
            "picture_url":"https://reev.s3.amazonaws.com/users/pictures/000/006/830/thumb/Foto_de_perfil.jpeg?13138363",
            "role":"manager"
         },
         "flow":{
            "id":52857,
            "name":"[Outbound] Teste ",
            "semi_automatic":true
         },
         "contact_group":null,
         "recipient_status":"connected",
         "lost_reason_title":null,
         "created_at":"2021-02-08T17:17:55.404Z",
         "updated_at":"2021-02-08T18:12:19.330Z",
         "variable1":"Biblioteca Digital",
         "variable2":"variable2",
         "variable3":null
      }
   ],
   "meta":{
      "current_page":1,
      "next_page":2,
      "prev_page":null,
      "total_count":3589
   }
}
